Error: concretized symbolic size
File: mem.c
Line: 79
assembly.ll line: 40885
State: 11
Stack: 
	#000040885 in default_malloc_ex () at mem.c:79
	#100012728 in CRYPTO_malloc () at mem.c:308
	#200149353 in dtls1_hm_fragment_new (, =1) at d1_both.c:185
	#300148962 in dtls1_reassemble_fragment (=94663496855616, =94663359245568, =94663495728456) at d1_both.c:622
	#400148500 in dtls1_get_message_fragment (=94663496855616, =4385, =20000, =94663495728456) at d1_both.c:828
	#500139859 in dtls1_get_message (=94663496855616, =4384, =4385, =4294967295, =20000, =94663495728456) at d1_both.c:443
	#600150210 in ssl3_get_server_hello (=94663496855616) at s3_clnt.c:830
	#700139046 in dtls1_connect (=94663496855616) at d1_clnt.c:330
	#800135733 in SSL_do_handshake (=94663496855616) at ssl_lib.c:2564
	#900135311 in perform_psk_handshake (=94663436614144, =94663496855616, =94663377700032, =94663377699472, =94663248373056, =94663248441712, =false) at dtls-fuzz.c:919
	#1000137238 in __klee_posix_wrapped_main (=8, =94663283126976) at dtls-fuzz.c:1260
	#1100009244 in __user_main (=8, =94663436513152, =94663436513224) at /home/hooman/Repos/klee-augmented/runtime/POSIX/klee_init_env.c:245
	#1200006871 in __uClibc_main (=8, =94663436513152) at libc/misc/internals/__uClibc_main.c:401
	#1300007037 in main (=8, =94663436513152)
Info: 
  size expr: (SExt w64 (Extract w32 0 (ZExt w64 (Read w8 2 SHf1-HandshakeLength0))))
  concretization : 96
  unbound example: 25
