KLEE: WARNING ONCE: function "__libc_connect" has inline asm
KLEE: WARNING ONCE: function "socket" has inline asm
KLEE: WARNING: undefined reference to function: __isoc99_sscanf
KLEE: WARNING: undefined reference to function: poll
KLEE: WARNING: executable has module level assembly (ignoring)
KLEE: WARNING ONCE: calling external: syscall(16, 0, 21505, 94234600523312) at /home/hooman/Repos/klee/runtime/POSIX/fd.c:1007 10
KLEE: WARNING ONCE: Alignment of memory from call "malloc" is not modelled. Using alignment of 8.
KLEE: WARNING ONCE: Alignment of memory from call "realloc" is not modelled. Using alignment of 8.
KLEE: WARNING ONCE: calling external: printf(94234598774528, 94234534164008, 94234598775008) at dtls-fuzz.c:1059 38
KLEE: WARNING ONCE: calling external: gettimeofday(94234600605344, 0) at /home/hooman/Repos/klee/runtime/POSIX/stubs.c:174 7
KLEE: WARNING ONCE: silently concretizing (reason: max-sym-array-size) expression (Add w64 94234608812044
          (Or w64 (Or w64 (Shl w64 (ZExt w64 (Read w8 1 CH0-FragmentOffset))
                                   8)
                          (Shl w64 (ZExt w64 (Read w8 0 CH0-FragmentOffset))
                                   16))
                  (ZExt w64 (Read w8 2 CH0-FragmentOffset)))) to value 94234608812044 (libc/string/memcpy.c:30)
