KLEE: WARNING ONCE: function "__libc_connect" has inline asm
KLEE: WARNING ONCE: function "socket" has inline asm
KLEE: WARNING: undefined reference to function: __isoc99_sscanf
KLEE: WARNING: undefined reference to function: poll
KLEE: WARNING ONCE: calling external: syscall(16, 0, 21505, 94356112996736) at /home/hooman/Repos/klee-augmented/runtime/POSIX/fd.c:1007 10
KLEE: WARNING ONCE: Alignment of memory from call "malloc" is not modelled. Using alignment of 8.
KLEE: WARNING ONCE: Alignment of memory from call "realloc" is not modelled. Using alignment of 8.
KLEE: WARNING ONCE: calling external: gettimeofday(94356113039264, 0) at /home/hooman/Repos/klee-augmented/runtime/POSIX/stubs.c:174 7
KLEE: WARNING ONCE: calling external: printf(94356111838944, 94356111615968, 94356111841888) at dtls-fuzz.c:902 21
KLEE: WARNING ONCE: silently concretizing (reason: max-sym-array-size) expression (Add w64 94356121362444
          (Or w64 (Or w64 (Shl w64 (ZExt w64 (Read w8 1 HVR-FragmentOffset))
                                   8)
                          (Shl w64 (ZExt w64 (Read w8 0 HVR-FragmentOffset))
                                   16))
                  (ZExt w64 (Read w8 2 HVR-FragmentOffset)))) to value 94356121362444 (libc/string/memcpy.c:30)
