Error: memory error: out of bound pointer
File: d1_both.c
Line: 659
assembly.ll line: 148725
State: 7
Stack: 
	#000148725 in dtls1_reassemble_fragment (=94846783822336, =94846674838912, =94846843187120) at d1_both.c:659
	#100148077 in dtls1_get_message_fragment (=94846783822336, =8577, =102400, =94846843187120) at d1_both.c:828
	#200139436 in dtls1_get_message (=94846783822336, =8576, =8577, =4294967295, =102400, =94846843187120) at d1_both.c:443
	#300177892 in ssl3_check_client_hello (=94846783822336) at s3_srvr.c:877
	#400174928 in dtls1_accept (=94846783822336) at d1_srvr.c:602
	#500135334 in SSL_do_handshake (=94846783822336) at ssl_lib.c:2564
	#600135115 in perform_psk_handshake (=94846783822336, =94846843859008, =94846595904208, =94846738770096, =94846738773904, =94846738767856, =false) at dtls-fuzz.c:983
	#700136815 in __klee_posix_wrapped_main (=8, =94846634397440) at dtls-fuzz.c:1238
	#800009238 in __user_main (=8, =94846783803264, =94846783803336) at /home/hooman/Repos/klee-augmented/runtime/POSIX/klee_init_env.c:245
	#900006865 in __uClibc_main (=8, =94846783803264) at libc/misc/internals/__uClibc_main.c:401
	#1000007031 in main (=8, =94846783803264)
Info: 
	address: (Add w64 94846843526848
          (AShr w64 (Add w64 18446744073709551615
                             (ZExt w64 (Read w8 2 CKEf2-HandshakeLength0)))
                    3))
	example: 94846843526864
	range: [94846843526864, 94846843526879]
	next: object at 94846590767040 of size 216
		MO1649[216] allocated at global:_EC_X9_62_PRIME_239V1
