Error: concretized symbolic size
File: mem.c
Line: 79
assembly.ll line: 40976
State: 11
Stack: 
	#000040976 in default_malloc_ex () at mem.c:79
	#100040954 in CRYPTO_realloc_clean (=94700192276480, =21848, ) at mem.c:372
	#200040043 in BUF_MEM_grow_clean (=94700192165120, ) at buffer.c:166
	#300149252 in dtls1_preprocess_fragment (=94700185117568, =94700019760352, =16384) at d1_both.c:511
	#400148548 in dtls1_get_message_fragment (=94700185117568, =8466, =16384, =94700182198296) at d1_both.c:856
	#500139732 in dtls1_get_message (=94700185117568, =8465, =8466, =1, =16384, =94700182198296) at d1_both.c:443
	#600175686 in ssl3_get_client_hello (=94700185117568) at s3_srvr.c:941
	#700174948 in dtls1_accept (=94700185117568) at d1_srvr.c:309
	#800135664 in SSL_do_handshake (=94700185117568) at ssl_lib.c:2564
	#900135445 in perform_psk_handshake (=94700185117568, =94700173260032, =94699961201808, =94699961202592, =94699961201696, =94699961199344, =false) at dtls-fuzz.c:1059
	#1000137111 in __klee_posix_wrapped_main (=7, =94700183351296) at dtls-fuzz.c:1309
	#1100009294 in __user_main (=7, =94700091439872, =94700091439936) at /home/hooman/Repos/klee/runtime/POSIX/klee_init_env.c:244
	#1200006891 in __uClibc_main (=7, =94700091439872) at libc/misc/internals/__uClibc_main.c:401
	#1300007057 in main (=7, =94700091439872)
Info: 
  size expr: (SExt w64 (Extract w32 0 (Shl w64 (UDiv w64 (Add w64 15
                                                                   (Or w64 (Or w64 (Shl w64 (ZExt w64 (Read w8 1 CH0-HandshakeLength0))
                                                                                            8)
                                                                                   (Shl w64 (ZExt w64 (Read w8 0 CH0-HandshakeLength0))
                                                                                            16))
                                                                           (ZExt w64 (Read w8 2 CH0-HandshakeLength0))))
                                                          3)
                                                2)))
  concretization : 22282260
  unbound example: 7509948
