Error: memory error: out of bound pointer
File: d1_both.c
Line: 659
assembly.ll line: 148725
State: 7
Stack: 
	#000148725 in dtls1_reassemble_fragment (=94691407122496, =94691214609504, =94691406453280) at d1_both.c:659
	#100148077 in dtls1_get_message_fragment (=94691407122496, =4385, =20000, =94691406453280) at d1_both.c:828
	#200139436 in dtls1_get_message (=94691407122496, =4384, =4385, =4294967295, =20000, =94691406453280) at d1_both.c:443
	#300149787 in ssl3_get_server_hello (=94691407122496) at s3_clnt.c:830
	#400138623 in dtls1_connect (=94691407122496) at d1_clnt.c:330
	#500135334 in SSL_do_handshake (=94691407122496) at ssl_lib.c:2564
	#600134912 in perform_psk_handshake (=94691347003904, =94691407122496, =94691313803248, =94691313809184, =94691302051536, =94691302041120, =false) at dtls-fuzz.c:897
	#700136815 in __klee_posix_wrapped_main (=8, =94691197616176) at dtls-fuzz.c:1238
	#800009238 in __user_main (=8, =94691346984832, =94691346984904) at /home/hooman/Repos/klee-augmented/runtime/POSIX/klee_init_env.c:245
	#900006865 in __uClibc_main (=8, =94691346984832) at libc/misc/internals/__uClibc_main.c:401
	#1000007031 in main (=8, =94691346984832)
Info: 
	address: (Add w64 94691406790352
          (AShr w64 (Add w64 18446744073709551615
                             (ZExt w64 (Read w8 2 SHf2-HandshakeLength0)))
                    3))
	example: 94691406790368
	range: [94691406790368, 94691406790383]
	next: object at 94691154509584 of size 100
		MO3327[100] allocated at global:nid_list
