Error: concretized symbolic size
File: mem.c
Line: 79
assembly.ll line: 40879
State: 4
Stack: 
	#000040879 in default_malloc_ex () at mem.c:79
	#100012722 in CRYPTO_malloc () at mem.c:308
	#200148930 in dtls1_hm_fragment_new (, =1) at d1_both.c:185
	#300148539 in dtls1_reassemble_fragment (=94691407122496, =94691238239264, =94691406453280) at d1_both.c:622
	#400148077 in dtls1_get_message_fragment (=94691407122496, =4385, =20000, =94691406453280) at d1_both.c:828
	#500139436 in dtls1_get_message (=94691407122496, =4384, =4385, =4294967295, =20000, =94691406453280) at d1_both.c:443
	#600149787 in ssl3_get_server_hello (=94691407122496) at s3_clnt.c:830
	#700138623 in dtls1_connect (=94691407122496) at d1_clnt.c:330
	#800135334 in SSL_do_handshake (=94691407122496) at ssl_lib.c:2564
	#900134912 in perform_psk_handshake (=94691347003904, =94691407122496, =94691313803248, =94691313809184, =94691302051536, =94691302041120, =false) at dtls-fuzz.c:897
	#1000136815 in __klee_posix_wrapped_main (=8, =94691197616176) at dtls-fuzz.c:1238
	#1100009238 in __user_main (=8, =94691346984832, =94691346984904) at /home/hooman/Repos/klee-augmented/runtime/POSIX/klee_init_env.c:245
	#1200006865 in __uClibc_main (=8, =94691346984832) at libc/misc/internals/__uClibc_main.c:401
	#1300007031 in main (=8, =94691346984832)
Info: 
  size expr: (SExt w64 (Extract w32 0 (ZExt w64 (Read w8 2 SHf1-HandshakeLength0))))
  concretization : 127
  unbound example: 255
