Error: concretized symbolic size
File: mem.c
Line: 79
assembly.ll line: 40885
State: 11
Stack: 
	#000040885 in default_malloc_ex () at mem.c:79
	#100012728 in CRYPTO_malloc () at mem.c:308
	#200149353 in dtls1_hm_fragment_new (, =1) at d1_both.c:185
	#300148962 in dtls1_reassemble_fragment (=94644227914240, =94644152614400, =94644288327832) at d1_both.c:622
	#400148500 in dtls1_get_message_fragment (=94644227914240, =8577, =102400, =94644288327832) at d1_both.c:828
	#500139859 in dtls1_get_message (=94644227914240, =8576, =8577, =4294967295, =102400, =94644288327832) at d1_both.c:443
	#600178315 in ssl3_check_client_hello (=94644227914240) at s3_srvr.c:877
	#700175351 in dtls1_accept (=94644227914240) at d1_srvr.c:602
	#800135733 in SSL_do_handshake (=94644227914240) at ssl_lib.c:2564
	#900135514 in perform_psk_handshake (=94644227914240, =94644288335936, =94644173850032, =94644173855408, =94644173852160, =94644173860560, =false) at dtls-fuzz.c:1005
	#1000137238 in __klee_posix_wrapped_main (=8, =94644079457168) at dtls-fuzz.c:1260
	#1100009244 in __user_main (=8, =94644227813888, =94644227813960) at /home/hooman/Repos/klee-augmented/runtime/POSIX/klee_init_env.c:245
	#1200006871 in __uClibc_main (=8, =94644227813888) at libc/misc/internals/__uClibc_main.c:401
	#1300007037 in main (=8, =94644227813888)
Info: 
  size expr: (SExt w64 (Extract w32 0 (ZExt w64 (Read w8 2 CKEf1-HandshakeLength0))))
  concretization : 96
  unbound example: 41
