Error: ASSERTION FAIL: 0
File: d1_srvr.c
Line: 699
assembly.ll line: 175396
State: 3
Stack: 
	#000175396 in dtls1_accept (=94269582418816) at d1_srvr.c:699
	#100135664 in SSL_do_handshake (=94269582418816) at ssl_lib.c:2564
	#200135445 in perform_psk_handshake (=94269582418816, =94269582218496, =94269479082000, =94269374979968, =94269479079760, =94269479080992, =false) at dtls-fuzz.c:1059
	#300137111 in __klee_posix_wrapped_main (=7, =94269580390400) at dtls-fuzz.c:1309
	#400009294 in __user_main (=7, =94269356019072, =94269356019136) at /home/hooman/Repos/klee/runtime/POSIX/klee_init_env.c:244
	#500006891 in __uClibc_main (=7, =94269356019072) at libc/misc/internals/__uClibc_main.c:401
	#600007057 in main (=7, =94269356019072)
