Error: ASSERTION FAIL: 0
File: d1_srvr.c
Line: 699
assembly.ll line: 175396
State: 1
Stack: 
	#000175396 in dtls1_accept (=94435598418816) at d1_srvr.c:699
	#100135664 in SSL_do_handshake (=94435598418816) at ssl_lib.c:2564
	#200135445 in perform_psk_handshake (=94435598418816, =94435598218496, =94435479108608, =94435351766672, =94435390425056, =94435390428528, =false) at dtls-fuzz.c:1059
	#300137111 in __klee_posix_wrapped_main (=7, =94435596398592) at dtls-fuzz.c:1309
	#400009294 in __user_main (=7, =94435371232640, =94435371232704) at /home/hooman/Repos/klee/runtime/POSIX/klee_init_env.c:244
	#500006891 in __uClibc_main (=7, =94435371232640) at libc/misc/internals/__uClibc_main.c:401
	#600007057 in main (=7, =94435371232640)
