Error: concretized symbolic size
File: mem.c
Line: 79
assembly.ll line: 40976
State: 4
Stack: 
	#000040976 in default_malloc_ex () at mem.c:79
	#100012797 in CRYPTO_malloc () at mem.c:308
	#200149319 in dtls1_hm_fragment_new (, =1) at d1_both.c:185
	#300148945 in dtls1_reassemble_fragment (=93896105370496, =93895944509344, =93896102410856) at d1_both.c:622
	#400148483 in dtls1_get_message_fragment (=93896105370496, =8577, =102400, =93896102410856) at d1_both.c:828
	#500139732 in dtls1_get_message (=93896105370496, =8576, =8577, =4294967295, =102400, =93896102410856) at d1_both.c:443
	#600178252 in ssl3_check_client_hello (=93896105370496) at s3_srvr.c:877
	#700175302 in dtls1_accept (=93896105370496) at d1_srvr.c:602
	#800135664 in SSL_do_handshake (=93896105370496) at ssl_lib.c:2564
	#900135445 in perform_psk_handshake (=93896105370496, =93896105170176, =93896024697696, =93896024695904, =93895935040624, =93896004628192, =false) at dtls-fuzz.c:1059
	#1000137111 in __klee_posix_wrapped_main (=8, =93895934435136) at dtls-fuzz.c:1309
	#1100009294 in __user_main (=8, =93896035828128, =93896035828200) at /home/hooman/Repos/klee/runtime/POSIX/klee_init_env.c:244
	#1200006891 in __uClibc_main (=8, =93896035828128) at libc/misc/internals/__uClibc_main.c:401
	#1300007057 in main (=8, =93896035828128)
Info: 
  size expr: (SExt w64 (Extract w32 0 (ZExt w64 (Read w8 2 CKEf1-HandshakeLength0))))
  concretization : 127
  unbound example: 255
